{
	"title":"MySQL",
	"tip":"soft",
	"name":"ros_mysql",
	"type":"运行环境",
	"ps":"一种关系数据库管理系统!",
	"coexist": false,
	"install_pre_inspection":true,
	"uninstall_pre_inspection":true,
	"checks": "server/ros_mysql/VERSION/bin/mysql",
	"path": "server/ros_mysql/VERSION",
	"todo_versions":["5.6","5.7","8.0","8.2"],
	"versions":["5.5", "5.6", "5.7","8.0","8.2","8.3"],
	"updates":["5.5.62","5.6.50", "5.7.32","8.0.34","8.2.0","8.3.0"],
	"shell":"install.sh",
	"checks":"server/ros_mysql",
	"path":"server/ros_mysql",
	"author":"mysql",
	"home":"https://dev.mysql.com/downloads/mysql",
	"date":"2017-11-24",
	"pid": "2"
}
