{
	"hook":[
		{
			"tag":"site_cb",
			"site_cb": {
				"title":"网站统计",
				"name":"webstats",
				"add":{"func":"reload"},
				"update":{"func":"reload"},
				"delete":{"func":"reload"}
			}
		}
	],
	"sort": "7",
	"ps": "网站统计报表",
	"name": "webstats",
	"title": "网站统计",
	"shell": "install.sh",
	"versions":["0.2.5"],
	"tip": "soft",
	"install_pre_inspection":true,
	"checks": "server/webstats",
	"path": "server/webstats",
	"display": 1,
	"author": "midoks",
	"date": "2022-07-18",
	"home": "https://gitlab.com/pattern2024/24007-linux-panel-mdserver-web-mdserver-web",
	"type": 0,
	"pid": "1"
}